EESchema Schematic File Version 2
LIBS:power
LIBS:device
LIBS:transistors
LIBS:conn
LIBS:linear
LIBS:regul
LIBS:74xx
LIBS:cmos4000
LIBS:adc-dac
LIBS:memory
LIBS:xilinx
LIBS:special
LIBS:microcontrollers
LIBS:dsp
LIBS:microchip
LIBS:analog_switches
LIBS:motorola
LIBS:texas
LIBS:intel
LIBS:audio
LIBS:interface
LIBS:digital-audio
LIBS:philips
LIBS:display
LIBS:cypress
LIBS:siliconi
LIBS:opto
LIBS:atmel
LIBS:contrib
LIBS:valves
LIBS:74hc165
LIBS:axoloti_ui-cache
EELAYER 27 0
EELAYER END
$Descr A4 11693 8268
encoding utf-8
Sheet 1 1
Title ""
Date "1 apr 2016"
Rev ""
Comp ""
Comment1 ""
Comment2 ""
Comment3 ""
Comment4 ""
$EndDescr
$Comp
L R R1
U 1 1 56E53338
P 5900 3550
F 0 "R1" V 5980 3550 40  0001 C CNN
F 1 "10k" V 5907 3551 40  0000 C CNN
F 2 "~" V 5830 3550 30  0000 C CNN
F 3 "~" H 5900 3550 30  0000 C CNN
	1    5900 3550
	1    0    0    -1  
$EndComp
$Comp
L SW_PUSH SW_D1
U 1 1 56E5369E
P 5450 2100
F 0 "SW_D1" H 4950 2100 50  0000 C CNN
F 1 "SW_PUSH" H 5450 2020 50  0001 C CNN
F 2 "~" H 5450 2100 60  0000 C CNN
F 3 "~" H 5450 2100 60  0000 C CNN
	1    5450 2100
	1    0    0    -1  
$EndComp
$Comp
L SW_PUSH SW_E1
U 1 1 56E536DA
P 5450 2200
F 0 "SW_E1" H 4950 2200 50  0000 C CNN
F 1 "SW_PUSH" H 5450 2120 50  0001 C CNN
F 2 "~" H 5450 2200 60  0000 C CNN
F 3 "~" H 5450 2200 60  0000 C CNN
	1    5450 2200
	1    0    0    -1  
$EndComp
$Comp
L SW_PUSH SW_F1
U 1 1 56E536E4
P 5450 2300
F 0 "SW_F1" H 4950 2300 50  0000 C CNN
F 1 "SW_PUSH" H 5450 2220 50  0001 C CNN
F 2 "~" H 5450 2300 60  0000 C CNN
F 3 "~" H 5450 2300 60  0000 C CNN
	1    5450 2300
	1    0    0    -1  
$EndComp
$Comp
L SW_PUSH SW_G1
U 1 1 56E536EA
P 5450 2400
F 0 "SW_G1" H 4950 2400 50  0000 C CNN
F 1 "SW_PUSH" H 5450 2320 50  0001 C CNN
F 2 "~" H 5450 2400 60  0000 C CNN
F 3 "~" H 5450 2400 60  0000 C CNN
	1    5450 2400
	1    0    0    -1  
$EndComp
$Comp
L SW_PUSH SW_A1
U 1 1 56E536F0
P 5450 2500
F 0 "SW_A1" H 4950 2500 50  0000 C CNN
F 1 "SW_PUSH" H 5450 2420 50  0001 C CNN
F 2 "~" H 5450 2500 60  0000 C CNN
F 3 "~" H 5450 2500 60  0000 C CNN
	1    5450 2500
	1    0    0    -1  
$EndComp
$Comp
L SW_PUSH SW_B1
U 1 1 56E536F6
P 5450 2600
F 0 "SW_B1" H 4950 2600 50  0000 C CNN
F 1 "SW_PUSH" H 5450 2520 50  0001 C CNN
F 2 "~" H 5450 2600 60  0000 C CNN
F 3 "~" H 5450 2600 60  0000 C CNN
	1    5450 2600
	1    0    0    -1  
$EndComp
$Comp
L SW_PUSH SW_C2
U 1 1 56E536FC
P 5450 2700
F 0 "SW_C2" H 4950 2700 50  0000 C CNN
F 1 "SW_PUSH" H 5450 2620 50  0001 C CNN
F 2 "~" H 5450 2700 60  0000 C CNN
F 3 "~" H 5450 2700 60  0000 C CNN
	1    5450 2700
	1    0    0    -1  
$EndComp
$Comp
L SW_PUSH SW_D2
U 1 1 56E53702
P 5450 2800
F 0 "SW_D2" H 4950 2800 50  0000 C CNN
F 1 "SW_PUSH" H 5450 2720 50  0001 C CNN
F 2 "~" H 5450 2800 60  0000 C CNN
F 3 "~" H 5450 2800 60  0000 C CNN
	1    5450 2800
	1    0    0    -1  
$EndComp
$Comp
L R R3
U 1 1 56E537C4
P 6000 3550
F 0 "R3" V 6080 3550 40  0001 C CNN
F 1 "10k" V 6007 3551 40  0000 C CNN
F 2 "~" V 5930 3550 30  0000 C CNN
F 3 "~" H 6000 3550 30  0000 C CNN
	1    6000 3550
	1    0    0    -1  
$EndComp
$Comp
L R R5
U 1 1 56E537CA
P 6100 3550
F 0 "R5" V 6180 3550 40  0001 C CNN
F 1 "10k" V 6107 3551 40  0000 C CNN
F 2 "~" V 6030 3550 30  0000 C CNN
F 3 "~" H 6100 3550 30  0000 C CNN
	1    6100 3550
	1    0    0    -1  
$EndComp
$Comp
L R R7
U 1 1 56E537D0
P 6200 3550
F 0 "R7" V 6280 3550 40  0001 C CNN
F 1 "10k" V 6207 3551 40  0000 C CNN
F 2 "~" V 6130 3550 30  0000 C CNN
F 3 "~" H 6200 3550 30  0000 C CNN
	1    6200 3550
	1    0    0    -1  
$EndComp
$Comp
L R R9
U 1 1 56E537D6
P 6300 3550
F 0 "R9" V 6380 3550 40  0001 C CNN
F 1 "10k" V 6307 3551 40  0000 C CNN
F 2 "~" V 6230 3550 30  0000 C CNN
F 3 "~" H 6300 3550 30  0000 C CNN
	1    6300 3550
	1    0    0    -1  
$EndComp
$Comp
L R R11
U 1 1 56E537DC
P 6400 3550
F 0 "R11" V 6480 3550 40  0001 C CNN
F 1 "10k" V 6407 3551 40  0000 C CNN
F 2 "~" V 6330 3550 30  0000 C CNN
F 3 "~" H 6400 3550 30  0000 C CNN
	1    6400 3550
	1    0    0    -1  
$EndComp
$Comp
L R R12
U 1 1 56E537E2
P 6500 3550
F 0 "R12" V 6580 3550 40  0001 C CNN
F 1 "10k" V 6507 3551 40  0000 C CNN
F 2 "~" V 6430 3550 30  0000 C CNN
F 3 "~" H 6500 3550 30  0000 C CNN
	1    6500 3550
	1    0    0    -1  
$EndComp
$Comp
L R R13
U 1 1 56E537E8
P 6600 3550
F 0 "R13" V 6680 3550 40  0001 C CNN
F 1 "10k" V 6607 3551 40  0000 C CNN
F 2 "~" V 6530 3550 30  0000 C CNN
F 3 "~" H 6600 3550 30  0000 C CNN
	1    6600 3550
	1    0    0    -1  
$EndComp
$Comp
L GND #PWR01
U 1 1 56E539ED
P 5150 2850
F 0 "#PWR01" H 5150 2850 30  0001 C CNN
F 1 "GND" H 5150 2780 30  0001 C CNN
F 2 "" H 5150 2850 60  0000 C CNN
F 3 "" H 5150 2850 60  0000 C CNN
	1    5150 2850
	1    0    0    -1  
$EndComp
$Comp
L 74LS165 U2
U 1 1 56E53A23
P 7500 5200
F 0 "U2" H 7650 5150 60  0000 C CNN
F 1 "74LS165" H 7650 4950 60  0000 C CNN
F 2 "~" H 7500 5200 60  0000 C CNN
F 3 "~" H 7500 5200 60  0000 C CNN
	1    7500 5200
	1    0    0    -1  
$EndComp
$Comp
L R R2
U 1 1 56E53A29
P 5900 6150
F 0 "R2" V 5980 6150 40  0001 C CNN
F 1 "10k" V 5907 6151 40  0000 C CNN
F 2 "~" V 5830 6150 30  0000 C CNN
F 3 "~" H 5900 6150 30  0000 C CNN
	1    5900 6150
	1    0    0    -1  
$EndComp
$Comp
L SW_PUSH SW_D#1
U 1 1 56E53A3F
P 5450 5100
F 0 "SW_D#1" H 4950 5100 50  0000 C CNN
F 1 "SW_PUSH" H 5450 5020 50  0001 C CNN
F 2 "~" H 5450 5100 60  0000 C CNN
F 3 "~" H 5450 5100 60  0000 C CNN
	1    5450 5100
	1    0    0    -1  
$EndComp
$Comp
L SW_PUSH SW_F#1
U 1 1 56E53A45
P 5450 5000
F 0 "SW_F#1" H 4950 5000 50  0000 C CNN
F 1 "SW_PUSH" H 5450 4920 50  0001 C CNN
F 2 "~" H 5450 5000 60  0000 C CNN
F 3 "~" H 5450 5000 60  0000 C CNN
	1    5450 5000
	1    0    0    -1  
$EndComp
$Comp
L SW_PUSH SW_G#1
U 1 1 56E53A4B
P 5450 4900
F 0 "SW_G#1" H 4950 4900 50  0000 C CNN
F 1 "SW_PUSH" H 5450 4820 50  0001 C CNN
F 2 "~" H 5450 4900 60  0000 C CNN
F 3 "~" H 5450 4900 60  0000 C CNN
	1    5450 4900
	1    0    0    -1  
$EndComp
$Comp
L SW_PUSH SW_A#1
U 1 1 56E53A51
P 5450 4800
F 0 "SW_A#1" H 4950 4800 50  0000 C CNN
F 1 "SW_PUSH" H 5450 4720 50  0001 C CNN
F 2 "~" H 5450 4800 60  0000 C CNN
F 3 "~" H 5450 4800 60  0000 C CNN
	1    5450 4800
	1    0    0    -1  
$EndComp
$Comp
L SW_PUSH SW_C#1
U 1 1 56E53A57
P 5450 4700
F 0 "SW_C#1" H 4950 4700 50  0000 C CNN
F 1 "SW_PUSH" H 5450 4620 50  0001 C CNN
F 2 "~" H 5450 4700 60  0000 C CNN
F 3 "~" H 5450 4700 60  0000 C CNN
	1    5450 4700
	1    0    0    -1  
$EndComp
$Comp
L R R4
U 1 1 56E53A77
P 6000 6150
F 0 "R4" V 6080 6150 40  0001 C CNN
F 1 "10k" V 6007 6151 40  0000 C CNN
F 2 "~" V 5930 6150 30  0000 C CNN
F 3 "~" H 6000 6150 30  0000 C CNN
	1    6000 6150
	1    0    0    -1  
$EndComp
$Comp
L R R6
U 1 1 56E53A7D
P 6100 6150
F 0 "R6" V 6180 6150 40  0001 C CNN
F 1 "10k" V 6107 6151 40  0000 C CNN
F 2 "~" V 6030 6150 30  0000 C CNN
F 3 "~" H 6100 6150 30  0000 C CNN
	1    6100 6150
	1    0    0    -1  
$EndComp
$Comp
L R R8
U 1 1 56E53A83
P 6200 6150
F 0 "R8" V 6280 6150 40  0001 C CNN
F 1 "10k" V 6207 6151 40  0000 C CNN
F 2 "~" V 6130 6150 30  0000 C CNN
F 3 "~" H 6200 6150 30  0000 C CNN
	1    6200 6150
	1    0    0    -1  
$EndComp
$Comp
L R R10
U 1 1 56E53A89
P 6300 6150
F 0 "R10" V 6380 6150 40  0001 C CNN
F 1 "10k" V 6307 6151 40  0000 C CNN
F 2 "~" V 6230 6150 30  0000 C CNN
F 3 "~" H 6300 6150 30  0000 C CNN
	1    6300 6150
	1    0    0    -1  
$EndComp
$Comp
L +3.3V #PWR02
U 1 1 56E53AA1
P 5650 6200
F 0 "#PWR02" H 5650 6160 30  0001 C CNN
F 1 "+3.3V" H 5650 6310 30  0000 C CNN
F 2 "" H 5650 6200 60  0000 C CNN
F 3 "" H 5650 6200 60  0000 C CNN
	1    5650 6200
	1    0    0    -1  
$EndComp
$Comp
L GND #PWR03
U 1 1 56E53AB7
P 5150 5450
F 0 "#PWR03" H 5150 5450 30  0001 C CNN
F 1 "GND" H 5150 5380 30  0001 C CNN
F 2 "" H 5150 5450 60  0000 C CNN
F 3 "" H 5150 5450 60  0000 C CNN
	1    5150 5450
	1    0    0    -1  
$EndComp
NoConn ~ 6800 2000
$Comp
L GND #PWR04
U 1 1 56E5422F
P 6800 6000
F 0 "#PWR04" H 6800 6000 30  0001 C CNN
F 1 "GND" H 6800 5930 30  0001 C CNN
F 2 "" H 6800 6000 60  0000 C CNN
F 3 "" H 6800 6000 60  0000 C CNN
	1    6800 6000
	1    0    0    -1  
$EndComp
$Comp
L GND #PWR05
U 1 1 56E54291
P 6800 3450
F 0 "#PWR05" H 6800 3450 30  0001 C CNN
F 1 "GND" H 6800 3380 30  0001 C CNN
F 2 "" H 6800 3450 60  0000 C CNN
F 3 "" H 6800 3450 60  0000 C CNN
	1    6800 3450
	1    0    0    -1  
$EndComp
NoConn ~ 8200 4800
NoConn ~ 8200 2200
$Comp
L +3.3V #PWR06
U 1 1 56E537F0
P 5650 3600
F 0 "#PWR06" H 5650 3560 30  0001 C CNN
F 1 "+3.3V" H 5650 3710 30  0000 C CNN
F 2 "" H 5650 3600 60  0000 C CNN
F 3 "" H 5650 3600 60  0000 C CNN
	1    5650 3600
	1    0    0    -1  
$EndComp
$Comp
L CONN_4X2 P1
U 1 1 56E54B35
P 10000 3900
F 0 "P1" H 10000 4150 50  0000 C CNN
F 1 "CONN_4X2" V 10000 3900 40  0000 C CNN
F 2 "~" H 10000 3900 60  0000 C CNN
F 3 "~" H 10000 3900 60  0000 C CNN
	1    10000 3900
	1    0    0    -1  
$EndComp
Text Label 8200 4700 0    60   ~ 0
KEY_DATA
Text Label 4600 2950 2    60   ~ 0
KEY_LOAD
Text Label 4600 3100 2    60   ~ 0
KEY_CLOCK
Text Label 10400 3750 0    60   ~ 0
KEY_LOAD
Text Label 10400 3850 0    60   ~ 0
KEY_CLOCK
Text Label 10400 3950 0    60   ~ 0
KEY_DATA
$Comp
L +5V #PWR07
U 1 1 56E54B46
P 9350 3700
F 0 "#PWR07" H 9350 3790 20  0001 C CNN
F 1 "+5V" H 9350 3790 30  0000 C CNN
F 2 "" H 9350 3700 60  0000 C CNN
F 3 "" H 9350 3700 60  0000 C CNN
	1    9350 3700
	1    0    0    -1  
$EndComp
$Comp
L +3.3V #PWR08
U 1 1 56E54B55
P 9500 3700
F 0 "#PWR08" H 9500 3660 30  0001 C CNN
F 1 "+3.3V" H 9500 3810 30  0000 C CNN
F 2 "" H 9500 3700 60  0000 C CNN
F 3 "" H 9500 3700 60  0000 C CNN
	1    9500 3700
	1    0    0    -1  
$EndComp
$Comp
L GND #PWR09
U 1 1 56E54C2C
P 9500 4150
F 0 "#PWR09" H 9500 4150 30  0001 C CNN
F 1 "GND" H 9500 4080 30  0001 C CNN
F 2 "" H 9500 4150 60  0000 C CNN
F 3 "" H 9500 4150 60  0000 C CNN
	1    9500 4150
	1    0    0    -1  
$EndComp
$Comp
L +5V #PWR010
U 1 1 56E54E38
P 9200 2400
F 0 "#PWR010" H 9200 2490 20  0001 C CNN
F 1 "+5V" H 9200 2490 30  0000 C CNN
F 2 "" H 9200 2400 60  0000 C CNN
F 3 "" H 9200 2400 60  0000 C CNN
	1    9200 2400
	1    0    0    -1  
$EndComp
$Comp
L PWR_FLAG #FLG011
U 1 1 56E54E47
P 9400 2400
F 0 "#FLG011" H 9400 2495 30  0001 C CNN
F 1 "PWR_FLAG" H 9400 2580 30  0000 C CNN
F 2 "" H 9400 2400 60  0000 C CNN
F 3 "" H 9400 2400 60  0000 C CNN
	1    9400 2400
	1    0    0    -1  
$EndComp
$Comp
L +3.3V #PWR012
U 1 1 56E54EBF
P 9750 2400
F 0 "#PWR012" H 9750 2360 30  0001 C CNN
F 1 "+3.3V" H 9750 2510 30  0000 C CNN
F 2 "" H 9750 2400 60  0000 C CNN
F 3 "" H 9750 2400 60  0000 C CNN
	1    9750 2400
	1    0    0    -1  
$EndComp
$Comp
L PWR_FLAG #FLG013
U 1 1 56E54ECE
P 9950 2400
F 0 "#FLG013" H 9950 2495 30  0001 C CNN
F 1 "PWR_FLAG" H 9950 2580 30  0000 C CNN
F 2 "" H 9950 2400 60  0000 C CNN
F 3 "" H 9950 2400 60  0000 C CNN
	1    9950 2400
	1    0    0    -1  
$EndComp
$Comp
L PWR_FLAG #FLG014
U 1 1 56E54F46
P 10300 2450
F 0 "#FLG014" H 10300 2545 30  0001 C CNN
F 1 "PWR_FLAG" H 10300 2630 30  0000 C CNN
F 2 "" H 10300 2450 60  0000 C CNN
F 3 "" H 10300 2450 60  0000 C CNN
	1    10300 2450
	1    0    0    -1  
$EndComp
$Comp
L GND #PWR015
U 1 1 56E54F55
P 10300 2550
F 0 "#PWR015" H 10300 2550 30  0001 C CNN
F 1 "GND" H 10300 2480 30  0001 C CNN
F 2 "" H 10300 2550 60  0000 C CNN
F 3 "" H 10300 2550 60  0000 C CNN
	1    10300 2550
	1    0    0    -1  
$EndComp
NoConn ~ 10400 4050
$Comp
L R R14
U 1 1 56E54FCB
P 6450 6150
F 0 "R14" V 6530 6150 40  0001 C CNN
F 1 "10k" V 6457 6151 40  0000 C CNN
F 2 "~" V 6380 6150 30  0000 C CNN
F 3 "~" H 6450 6150 30  0000 C CNN
	1    6450 6150
	1    0    0    -1  
$EndComp
$Comp
L R R15
U 1 1 56E54FD1
P 6550 6150
F 0 "R15" V 6630 6150 40  0001 C CNN
F 1 "10k" V 6557 6151 40  0000 C CNN
F 2 "~" V 6480 6150 30  0000 C CNN
F 3 "~" H 6550 6150 30  0000 C CNN
	1    6550 6150
	1    0    0    -1  
$EndComp
$Comp
L GND #PWR016
U 1 1 56E55175
P 6700 5250
F 0 "#PWR016" H 6700 5250 30  0001 C CNN
F 1 "GND" H 6700 5180 30  0001 C CNN
F 2 "" H 6700 5250 60  0000 C CNN
F 3 "" H 6700 5250 60  0000 C CNN
	1    6700 5250
	1    0    0    -1  
$EndComp
$Comp
L SW_PUSH OCT+1
U 1 1 56E551F4
P 5450 5300
F 0 "OCT+1" H 4950 5300 50  0000 C CNN
F 1 "SW_PUSH" H 5450 5220 50  0001 C CNN
F 2 "~" H 5450 5300 60  0000 C CNN
F 3 "~" H 5450 5300 60  0000 C CNN
	1    5450 5300
	1    0    0    -1  
$EndComp
$Comp
L SW_PUSH OCT-1
U 1 1 56E551FA
P 5450 5400
F 0 "OCT-1" H 4950 5400 50  0000 C CNN
F 1 "SW_PUSH" H 5450 5320 50  0001 C CNN
F 2 "~" H 5450 5400 60  0000 C CNN
F 3 "~" H 5450 5400 60  0000 C CNN
	1    5450 5400
	1    0    0    -1  
$EndComp
$Comp
L 74LS165 U1
U 1 1 56E53297
P 7500 2600
F 0 "U1" H 7650 2550 60  0000 C CNN
F 1 "74LS165" H 7650 2350 60  0000 C CNN
F 2 "~" H 7500 2600 60  0000 C CNN
F 3 "~" H 7500 2600 60  0000 C CNN
	1    7500 2600
	1    0    0    -1  
$EndComp
$Comp
L VCC #PWR017
U 1 1 56E5512B
P 9050 2400
F 0 "#PWR017" H 9050 2500 30  0001 C CNN
F 1 "VCC" H 9050 2500 30  0000 C CNN
F 2 "" H 9050 2400 60  0000 C CNN
F 3 "" H 9050 2400 60  0000 C CNN
	1    9050 2400
	1    0    0    -1  
$EndComp
Wire Wire Line
	5750 2100 6800 2100
Wire Wire Line
	5900 2100 5900 3300
Wire Wire Line
	5750 2200 6800 2200
Wire Wire Line
	6000 2200 6000 3300
Wire Wire Line
	5750 2300 6800 2300
Wire Wire Line
	6100 2300 6100 3300
Wire Wire Line
	5750 2400 6800 2400
Wire Wire Line
	6200 2400 6200 3300
Wire Wire Line
	5750 2500 6800 2500
Wire Wire Line
	6300 2500 6300 3300
Wire Wire Line
	5750 2600 6800 2600
Wire Wire Line
	6400 2600 6400 3300
Wire Wire Line
	5750 2700 6800 2700
Wire Wire Line
	6500 2700 6500 3300
Wire Wire Line
	5750 2800 6800 2800
Wire Wire Line
	6600 2800 6600 3300
Connection ~ 5900 2100
Connection ~ 6000 2200
Connection ~ 6100 2300
Connection ~ 6200 2400
Connection ~ 6300 2500
Connection ~ 6400 2600
Connection ~ 6500 2700
Connection ~ 6600 2800
Wire Wire Line
	5650 3600 5650 3800
Wire Wire Line
	5650 3800 6600 3800
Connection ~ 5900 3800
Connection ~ 6000 3800
Connection ~ 6100 3800
Connection ~ 6200 3800
Connection ~ 6300 3800
Connection ~ 6400 3800
Connection ~ 6500 3800
Connection ~ 5150 2200
Connection ~ 5150 2300
Connection ~ 5150 2400
Connection ~ 5150 2500
Connection ~ 5150 2600
Connection ~ 5150 2700
Connection ~ 5150 2800
Wire Wire Line
	5750 4700 6800 4700
Wire Wire Line
	5900 4700 5900 5900
Wire Wire Line
	5750 4800 6800 4800
Wire Wire Line
	6000 4800 6000 5900
Wire Wire Line
	5750 4900 6800 4900
Wire Wire Line
	6100 4900 6100 5900
Wire Wire Line
	5750 5000 6800 5000
Wire Wire Line
	6200 5000 6200 5900
Wire Wire Line
	5750 5100 6800 5100
Wire Wire Line
	6300 5100 6300 5900
Connection ~ 5900 4700
Connection ~ 6000 4800
Connection ~ 6100 4900
Connection ~ 6200 5000
Connection ~ 6300 5100
Wire Wire Line
	5650 6200 5650 6400
Connection ~ 5900 6400
Connection ~ 6000 6400
Connection ~ 6100 6400
Connection ~ 6200 6400
Connection ~ 6300 6400
Connection ~ 5150 4800
Connection ~ 5150 4900
Connection ~ 5150 5000
Connection ~ 5150 5100
Wire Wire Line
	5650 6400 6550 6400
Wire Wire Line
	6800 6000 6800 5800
Wire Wire Line
	6800 3450 6800 3200
Wire Wire Line
	8200 2100 8300 2100
Wire Wire Line
	8300 2100 8300 3950
Wire Wire Line
	8300 3950 6700 3950
Wire Wire Line
	6700 3950 6700 4600
Wire Wire Line
	6700 4600 6800 4600
Wire Wire Line
	6800 2950 4600 2950
Wire Wire Line
	6800 3100 4600 3100
Wire Wire Line
	6800 5550 4750 5550
Wire Wire Line
	4750 5550 4750 2950
Connection ~ 4750 2950
Wire Wire Line
	6800 5700 4700 5700
Wire Wire Line
	4700 5700 4700 3100
Connection ~ 4700 3100
Wire Wire Line
	5150 4700 5150 5450
Wire Wire Line
	5150 2100 5150 2850
Wire Wire Line
	9350 3850 9600 3850
Wire Wire Line
	9350 3700 9350 3850
Wire Wire Line
	9500 4150 9500 3950
Wire Wire Line
	9500 3950 9600 3950
Wire Wire Line
	9600 4050 9500 4050
Connection ~ 9500 4050
Wire Wire Line
	9500 3700 9500 3750
Wire Wire Line
	9500 3750 9600 3750
Wire Wire Line
	9050 2400 9950 2400
Wire Wire Line
	10300 2550 10300 2450
Connection ~ 6450 6400
Wire Wire Line
	5750 5400 6800 5400
Wire Wire Line
	6550 5400 6550 5900
Wire Wire Line
	5750 5300 6800 5300
Wire Wire Line
	6450 5300 6450 5900
Wire Wire Line
	6700 5250 6700 5200
Wire Wire Line
	6700 5200 6800 5200
Connection ~ 5150 5300
Connection ~ 5150 5400
Connection ~ 6450 5300
Connection ~ 6550 5400
Connection ~ 9200 2400
Connection ~ 9750 2400
Connection ~ 9400 2400
$EndSCHEMATC
