PCBNEW-LibModule-V1  Pon 14 Ožu 2016 17:50:35
# encoding utf-8
Units mm
$INDEX
SW_PUSH-12mm
SW_PUSH-12mm_mod
$EndINDEX
$MODULE SW_PUSH-12mm
Po 0 0 0 15 56E6EB74 00000000 ~~
Li SW_PUSH-12mm
Sc 0
AR /56E536E4
Op 0 0 0
T0 0 -0.762 1.016 1.016 0 0.2032 N V 21 N "SW_F1"
T1 0 1.016 1.016 1.016 0 0.2032 N V 21 N "SW_PUSH"
DC 0 0 3.81 2.54 0.254 21
DS -6.35 -6.35 6.35 -6.35 0.254 21
DS 6.35 -6.35 6.35 6.35 0.254 21
DS 6.35 6.35 -6.35 6.35 0.254 21
DS -6.35 6.35 -6.35 -6.35 0.254 21
$PAD
Sh "1" O 3.048 2 0 0 0
Dr 1.5 0 0
At STD N 00E0FFFF
Ne 1 "GND"
Po 6.35 -2.54
$EndPAD
$PAD
Sh "2" O 3.048 2 0 0 0
Dr 1.5 0 0
At STD N 00E0FFFF
Ne 2 "N-0000014"
Po 6.35 2.54
$EndPAD
$PAD
Sh "1" O 3.048 2 0 0 0
Dr 1.5 0 0
At STD N 00E0FFFF
Ne 1 "GND"
Po -6.35 -2.54
$EndPAD
$PAD
Sh "2" O 3.048 2 0 0 0
Dr 1.5 0 0
At STD N 00E0FFFF
Ne 2 "N-0000014"
Po -6.35 2.54
$EndPAD
$EndMODULE SW_PUSH-12mm
$MODULE SW_PUSH-12mm_mod
Po 0 0 0 15 56E6EB74 00000000 ~~
Li SW_PUSH-12mm_mod
Sc 0
AR /56E536E4
Op 0 0 0
T0 0 -0.762 1.016 1.016 0 0.2032 N V 21 N "SW_F1"
T1 0 1.016 1.016 1.016 0 0.2032 N V 21 N "SW_PUSH"
DC 0 0 3.81 2.54 0.254 21
DS -6.35 -6.35 6.35 -6.35 0.254 21
DS 6.35 -6.35 6.35 6.35 0.254 21
DS 6.35 6.35 -6.35 6.35 0.254 21
DS -6.35 6.35 -6.35 -6.35 0.254 21
$PAD
Sh "1" O 3.048 2 0 0 0
Dr 1.5 0 0
At STD N 00E0FFFF
Ne 1 "GND"
Po 6.35 -2.54
$EndPAD
$PAD
Sh "2" O 3.048 2 0 0 0
Dr 1.5 0 0
At STD N 00E0FFFF
Ne 2 "N-0000014"
Po 6.35 2.54
$EndPAD
$PAD
Sh "1" O 3.048 2 0 0 0
Dr 1.5 0 0
At STD N 00E0FFFF
Ne 1 "GND"
Po -6.35 -2.54
$EndPAD
$PAD
Sh "2" O 3.048 2 0 0 0
Dr 1.5 0 0
At STD N 00E0FFFF
Ne 2 "N-0000014"
Po -6.35 2.54
$EndPAD
$EndMODULE SW_PUSH-12mm_mod
$EndLIBRARY
